%YAML 1.1
%TAG !u! tag:unity3d.com,2011:
--- !u!114 &11400000
MonoBehaviour:
  m_ObjectHideFlags: 0
  m_PrefabParentObject: {fileID: 0}
  m_PrefabInternal: {fileID: 0}
  m_GameObject: {fileID: 0}
  m_Enabled: 1
  m_EditorHideFlags: 0
  m_Script: {fileID: 11500000, guid: 455fce9d9f6fcdc49b6cfb584db915de, type: 3}
  m_Name: Border_2
  m_EditorClassIdentifier: 
  mainSprite: {fileID: 21300000, guid: b5bd1138657273e488d7b681bb7e9cfb, type: 3}
  secondSprite: {fileID: 21300000, guid: 07f5216ff980eb54098097c0e04e43a2, type: 3}
