Id,Espanol
title,Сервис Локолизации
text,"Это пакет 
autors,Sun Cube
localization1,Inglés
localization2,Ruso
localization3,Espanol
needLevel,nivel requerido
language,idioma
sound,sonar
music,musica
play,jugar
setting,ajuste
profile,perfil
shop,tienda
fonts,fuentes
font,fuente
car,coche
cars,coches
border,frontera
coins,monedas
borders,fronteras
cancle,cancelar
findContinue,encontrar Continuar
weNotify,Te notificamos entonces que se encuentre rival 
enterName,Ingrese su nombre
win,ganar
lose,perder
reward,recompensa
exp,experiencia
go,Vamos
wait,esperar
create,crear un juego
join,unirse
start,el comienzo
online,en linea
local,localmente
rivalFind, Rival encontrado
loading,cargando
waitServer,Espera hasta que el servidor inicie el juego.
training,entrenamiento
fastGame,Jugando con un jugador al azar
match,habitacion
update,actualizar
currentMatches,Partidos Actuales
completeRace,Estoy completa carrera
waitForCreateServer,crear servidor
matches,partidos actuales
incorrectComplete,Incorrecto completo 
gameComplete,Juegos Jugados
bestResult,El mejor resultado
SpeedSuf, s/m
avarageSpeed,resultado conjunto
wins,victorias
winsPersent,porcentaje ganador