%YAML 1.1
%TAG !u! tag:unity3d.com,2011:
--- !u!1045 &1
EditorBuildSettings:
  m_ObjectHideFlags: 0
  serializedVersion: 2
  m_Scenes:
  - enabled: 1
    path: Assets/Scenes/main.unity
    guid: 238d9a41a64b53e40a450af574aef548
  - enabled: 1
    path: Assets/Scenes/game.unity
    guid: 6f66488a56164e1488834e180f9da3df
  - enabled: 1
    path: Assets/Scenes/lobby.unity
    guid: 4f205fc8fbb6adf4e962e2562658a2ca
