%YAML 1.1
%TAG !u! tag:unity3d.com,2011:
--- !u!114 &11400000
MonoBehaviour:
  m_ObjectHideFlags: 0
  m_PrefabParentObject: {fileID: 0}
  m_PrefabInternal: {fileID: 0}
  m_GameObject: {fileID: 0}
  m_Enabled: 1
  m_EditorHideFlags: 0
  m_Script: {fileID: 11500000, guid: d666cb96322ae8648b561f41dda84df4, type: 3}
  m_Name: Car_5
  m_EditorClassIdentifier: 
  mainSprite: {fileID: 21300000, guid: 9c1d244737c7c4c4e97e74e60c1f51fb, type: 3}
  carName: Car 5
  fillColor: {r: 0.7091121, g: 0.71323526, b: 0.6975021, a: 1}
